\relax 
\@writefile{toc}{\contentsline {section}{\numberline {1}Overview}{1}}
\@writefile{toc}{\contentsline {section}{\numberline {2}Camera Motion Calculation}{1}}
\@writefile{lof}{\contentsline {figure}{\numberline {1}{\ignorespaces Camera motion and the relationship between $r1$ and $r2$.\relax }}{2}}
\providecommand*\caption@xref[2]{\@setref\relax\@undefined{#1}}
\newlabel{cons}{{1}{2}}
\@writefile{toc}{\contentsline {section}{\numberline {3}Single camera model}{2}}
\@writefile{toc}{\contentsline {section}{\numberline {4}Search along the epipolar line}{2}}
\@writefile{lof}{\contentsline {figure}{\numberline {2}{\ignorespaces Camera motion and the relationship between $r1$ and $r2$.\relax }}{3}}
\newlabel{cons}{{2}{3}}
\@writefile{toc}{\contentsline {section}{\numberline {5}Experiments}{3}}
